{
  "type": "service_account",
  "project_id": "easy-way-c19b9",
  "private_key_id": "7d6d370ea7f18f89e622c3ab1e69b8951b2354d2",
  "private_key": "-----BEGIN PRIVATE KEY-----\nMIIEvAIBADANBgkqhkiG9w0BAQEFAASCBKYwggSiAgEAAoIBAQDJf5XCEuvqv2fp\nxQMbxcuYBqs9Ca24/+7uTohDPbVNljP7ctOTt/x8Y4IfTsqc/bGetc8OsmyXdL60\nby0h2xsS99vNenwhIEEXQKIuy98BOywAl5yT9X5sBaoviA5XHeV0YGw47sxf+8Ou\nGDRr5c+CQJXUEoEmuxCMiTARdD4medGWprn/5JkDdWchhdCVYOThOY0NNNFW3Xie\no0GSWlz5jGMQs1m1z+XMYOfqIJPA4fLwuFcFfemCfY7LOYECSUXUYTHRmc885QBY\nSJKhtnQsS04nTqqTRozDH4MlFzTgMO7J9rhVQ7KOnxTrAuYyjPiIdlE8sOFEG9cT\njgke73U7AgMBAAECggEASM9/DIFs2Ucv4+OqY2M+VeF3CBfSvApTSq57A50tQet4\nPjC4bmTp6gLFFs4QXdk4USrONrfXkIUBkk6oJtc3Ocvxk5bies/eZWoYEMPfgeDh\nXhdq33YyqBMF86X81JL7gmmDQbFcjYR6qZKagrCoop725QqIu7eV28qI4Y25FYqE\nPCNVodjlxurqXC19QMgllkUga1d8oolsyMHNsNQL6+vAC3k4g+DCmPN9qcPdlqlH\nL5O9HUED8qC9Ej9duo2mTpf6ZN1F/vho/MorgmyRM2SmhH1Cj/KcB6adaoDFuC8+\nKa31T2m4i/hY7XTR+i59jvoxVOjTHlWDdeKDcxcKpQKBgQDnVjaYf0F7hgdRTv4T\nmEE7lPaE+AOtfTQ9xPagb0urV/882YUyOciOC6Z8y7GwYNCNadhkPwqM0S8oU+yT\ntgYXbyi4CHWNqLP/ZNGXDBMQN9VRVt/oGbg9uVYWGv4ao8erG/+/dfiBk8axaUx1\nlsimybpyItkBV1zlQYnMRw//FQKBgQDe+wD6bWUTFPFSlGaRb+8HKcJO1dyh02a+\nf9uCE/mGYrBJuA+nUY1/KKwIyYZTfJ5y4mOELUfSdkPFkXj088yQL8LulHvTOfn9\nzvv7Xge2ZLQ7tLvuvtYM5ikVgjJPLdWKTY2mMqJQ46igES/30OutJ+ReR+44DBai\nF2Vu7Oo3DwKBgDg5Q9ucUhXrZSvlvuqUPoZ0ldWLUZmArIm2rRog8osaP/ZSB4VF\ndfDP9A6wkucDIKy95NG4YKAI1yU+AGmF+8UGRyczJx7euaCAqE/Fp3xxlW7HZnPK\njHSz7rBArzFaTNTRYT7vNQ6JE+laZjLOCsY+kQncXlFtIi611v/G5aRhAoGAMUsb\n9ECqz4UZtD/KTOyJ0vOQWQ0+MSgi1oo9ZIw15Vd70VA3Za3JsgqzvV2PrHUoMg2K\nInZAIm6ynMKEEuKynk1wsn1wwklW0p0nZ3JqEhBBJ9HUmfrmJwPaoT6fEJH5WxG5\n9rvK1kb9yCUEjaxJ7YWcHpuYNhu2BS9W5SbKwFECgYAtwQUxIStDv4zy0uEJi8TM\n1oYEcL0Bk9Dju2lhXX4Ah3XOt5jeJ3z4pxlsGIEWKH2WGSBS9Tx3P9G6etqs9p2x\nxEgHceqaN5kLRsHUw8+fR1xwz3XMxvFjTm0JW83mMc82bzPPt1+XfztSTW8ofkAs\nK8K3uywrGA8m01o7x2gUkg==\n-----END PRIVATE KEY-----\n",
  "client_email": "firebase-adminsdk-0i7d4@easy-way-c19b9.iam.gserviceaccount.com",
  "client_id": "105817296819894660949",
  "auth_uri": "https://accounts.google.com/o/oauth2/auth",
  "token_uri": "https://oauth2.googleapis.com/token",
  "auth_provider_x509_cert_url": "https://www.googleapis.com/oauth2/v1/certs",
  "client_x509_cert_url": "https://www.googleapis.com/robot/v1/metadata/x509/firebase-adminsdk-0i7d4%40easy-way-c19b9.iam.gserviceaccount.com"
}
